EESchema Schematic File Version 4
EELAYER 30 0
EELAYER END
$Descr A4 11693 8268
encoding utf-8
Sheet 1 1
Title "PAX Modul"
Date "2021-06-28"
Rev ""
Comp "Zdenek Sestak"
Comment1 ""
Comment2 ""
Comment3 ""
Comment4 ""
$EndDescr
$Comp
L MCU_Parallax:P8X32A-D40 U2
U 1 1 60A7D3B8
P 6350 2250
F 0 "U2" H 6350 3531 50  0000 C CNN
F 1 "P8X32A-D40" H 6350 3440 50  0000 C CNN
F 2 "Package_DIP:DIP-40_W15.24mm_Socket_LongPads" H 6350 3450 50  0001 C CNN
F 3 "https://www.parallax.com/sites/default/files/downloads/P8X32A-Propeller-Datasheet-v1.4.0_0.pdf" H 6350 2250 50  0001 C CNN
	1    6350 2250
	1    0    0    -1  
$EndComp
$Comp
L Memory_EEPROM:24LC512 U3
U 1 1 60A7EA9D
P 8450 3500
F 0 "U3" H 8450 3019 50  0000 C CNN
F 1 "24LC512" H 8450 3110 50  0000 C CNN
F 2 "Package_DIP:DIP-8_W7.62mm_Socket_LongPads" H 8450 3500 50  0001 C CNN
F 3 "http://ww1.microchip.com/downloads/en/DeviceDoc/21754M.pdf" H 8450 3500 50  0001 C CNN
	1    8450 3500
	-1   0    0    1   
$EndComp
Wire Wire Line
	8850 3400 8950 3400
Wire Wire Line
	8950 3400 8950 3500
Wire Wire Line
	8950 3600 8850 3600
Wire Wire Line
	8850 3500 8950 3500
Connection ~ 8950 3500
Wire Wire Line
	8950 3500 8950 3600
Wire Wire Line
	8450 3200 8950 3200
Wire Wire Line
	8950 3200 8950 3400
Connection ~ 8950 3400
Wire Wire Line
	8050 3400 8050 3200
Wire Wire Line
	8050 3200 8450 3200
Connection ~ 8450 3200
$Comp
L power:GND #PWR09
U 1 1 60A850E2
P 8950 3850
F 0 "#PWR09" H 8950 3600 50  0001 C CNN
F 1 "GND" H 8955 3677 50  0000 C CNN
F 2 "" H 8950 3850 50  0001 C CNN
F 3 "" H 8950 3850 50  0001 C CNN
	1    8950 3850
	1    0    0    -1  
$EndComp
Wire Wire Line
	8950 3600 8950 3850
Connection ~ 8950 3600
Wire Wire Line
	6250 3350 6300 3350
$Comp
L power:GND #PWR06
U 1 1 60A86063
P 6300 3350
F 0 "#PWR06" H 6300 3100 50  0001 C CNN
F 1 "GND" H 6305 3177 50  0000 C CNN
F 2 "" H 6300 3350 50  0001 C CNN
F 3 "" H 6300 3350 50  0001 C CNN
	1    6300 3350
	1    0    0    -1  
$EndComp
Connection ~ 6300 3350
Wire Wire Line
	6300 3350 6350 3350
$Comp
L power:GND #PWR05
U 1 1 60A8665A
P 5650 1450
F 0 "#PWR05" H 5650 1200 50  0001 C CNN
F 1 "GND" H 5550 1450 50  0000 C CNN
F 2 "" H 5650 1450 50  0001 C CNN
F 3 "" H 5650 1450 50  0001 C CNN
	1    5650 1450
	1    0    0    -1  
$EndComp
$Comp
L Regulator_Linear:LF33_TO220 U1
U 1 1 60A88A2B
P 2850 7150
F 0 "U1" H 2850 7392 50  0000 C CNN
F 1 "LF33_TO220" H 2850 7301 50  0000 C CNN
F 2 "Package_TO_SOT_THT:TO-220-3_Horizontal_TabDown" H 2850 7375 50  0001 C CIN
F 3 "http://www.st.com/content/ccc/resource/technical/document/datasheet/c4/0e/7e/2a/be/bc/4c/bd/CD00000546.pdf/files/CD00000546.pdf/jcr:content/translations/en.CD00000546.pdf" H 2850 7100 50  0001 C CNN
	1    2850 7150
	1    0    0    -1  
$EndComp
Wire Wire Line
	6600 1150 6350 1150
Wire Wire Line
	6250 1150 6350 1150
Connection ~ 6350 1150
Wire Wire Line
	8450 3900 8450 3850
$Comp
L power:GND #PWR02
U 1 1 60A8D89B
P 2850 7450
F 0 "#PWR02" H 2850 7200 50  0001 C CNN
F 1 "GND" H 2855 7277 50  0000 C CNN
F 2 "" H 2850 7450 50  0001 C CNN
F 3 "" H 2850 7450 50  0001 C CNN
	1    2850 7450
	1    0    0    -1  
$EndComp
$Comp
L Connector_Generic:Conn_01x15 J1A1
U 1 1 60A9338D
P 1550 2350
F 0 "J1A1" H 1400 3200 50  0000 L CNN
F 1 "Conn_01x15" H 1630 2301 50  0001 L CNN
F 2 "Connector_PinHeader_2.54mm:PinHeader_1x15_P2.54mm_Vertical" H 1550 2350 50  0001 C CNN
F 3 "~" H 1550 2350 50  0001 C CNN
	1    1550 2350
	1    0    0    -1  
$EndComp
$Comp
L Connector_Generic:Conn_01x15 J1B1
U 1 1 60A947C0
P 1700 2350
F 0 "J1B1" H 1650 1500 50  0000 C CNN
F 1 "Conn_01x15" H 1750 1500 50  0001 C CNN
F 2 "Connector_PinHeader_2.54mm:PinHeader_1x15_P2.54mm_Vertical" H 1700 2350 50  0001 C CNN
F 3 "~" H 1700 2350 50  0001 C CNN
	1    1700 2350
	-1   0    0    1   
$EndComp
Wire Wire Line
	1350 1650 1150 1650
Wire Wire Line
	1350 1750 1150 1750
Wire Wire Line
	1350 1850 1150 1850
Wire Wire Line
	1350 1950 1150 1950
Wire Wire Line
	1350 2050 1150 2050
Wire Wire Line
	1350 2150 1150 2150
Wire Wire Line
	1350 2250 1150 2250
Wire Wire Line
	1350 2350 1150 2350
Wire Wire Line
	1350 2550 1150 2550
Wire Wire Line
	1350 2650 1150 2650
Wire Wire Line
	1350 2750 1150 2750
Wire Wire Line
	1350 2850 1150 2850
Wire Wire Line
	1900 1850 2150 1850
Wire Wire Line
	1900 1950 2150 1950
Wire Wire Line
	1900 2350 2150 2350
Wire Wire Line
	1900 2450 2150 2450
Wire Wire Line
	1900 2550 2150 2550
Wire Wire Line
	1900 2650 2150 2650
Wire Wire Line
	1900 2750 2150 2750
Wire Wire Line
	1900 2850 2150 2850
Wire Wire Line
	1900 2950 2150 2950
Wire Wire Line
	1900 3050 2150 3050
Text Label 1200 1650 0    50   ~ 0
D7
Text Label 1200 1750 0    50   ~ 0
D6
Text Label 1200 1850 0    50   ~ 0
D5
Text Label 1200 1950 0    50   ~ 0
D4
Text Label 1200 2050 0    50   ~ 0
D3
Text Label 1200 2150 0    50   ~ 0
D2
Text Label 1200 2250 0    50   ~ 0
D1
Text Label 1200 2350 0    50   ~ 0
D0
Wire Bus Line
	1050 1450 2250 1450
Entry Wire Line
	1050 1550 1150 1650
Entry Wire Line
	1050 1650 1150 1750
Entry Wire Line
	1050 1750 1150 1850
Entry Wire Line
	1050 1850 1150 1950
Entry Wire Line
	1050 1950 1150 2050
Entry Wire Line
	1050 2050 1150 2150
Entry Wire Line
	1050 2150 1150 2250
Entry Wire Line
	1050 2250 1150 2350
Entry Wire Line
	1050 2450 1150 2550
Entry Wire Line
	2150 1850 2250 1750
Entry Wire Line
	2150 1950 2250 1850
Entry Wire Line
	2150 2450 2250 2350
Entry Wire Line
	2150 2550 2250 2450
Entry Wire Line
	2150 2650 2250 2550
Text Label 1150 2550 0    50   ~ 0
~IOWR
Text Label 1200 2650 0    50   ~ 0
A5
Text Label 1150 2750 0    50   ~ 0
+12V
Text Label 1150 2850 0    50   ~ 0
-5V
Text Label 1150 2950 0    50   ~ 0
+5V
Text Label 1150 3050 0    50   ~ 0
GND
Text Label 1900 3050 0    50   ~ 0
GND
Text Label 1900 2950 0    50   ~ 0
+5V
Text Label 1900 2850 0    50   ~ 0
-5V
Text Label 1900 2750 0    50   ~ 0
+12V
Text Label 1900 2650 0    50   ~ 0
~IORD
Text Label 1950 2550 0    50   ~ 0
A0
Text Label 1950 2450 0    50   ~ 0
A1
Text Label 1950 2350 0    50   ~ 0
A7
Text Label 1950 1950 0    50   ~ 0
A2
Text Label 1950 1850 0    50   ~ 0
FI2
Wire Wire Line
	2550 7150 2400 7150
$Comp
L power:GND #PWR04
U 1 1 60B07EAB
P 1150 3050
F 0 "#PWR04" H 1150 2800 50  0001 C CNN
F 1 "GND" H 1155 2877 50  0000 C CNN
F 2 "" H 1150 3050 50  0001 C CNN
F 3 "" H 1150 3050 50  0001 C CNN
	1    1150 3050
	1    0    0    -1  
$EndComp
$Comp
L Device:R_Small R1
U 1 1 60B1C012
P 5350 1650
F 0 "R1" V 5350 1650 50  0000 C CNN
F 1 "1k0" V 5300 1800 50  0000 C CNN
F 2 "Resistor_THT:R_Axial_DIN0204_L3.6mm_D1.6mm_P5.08mm_Horizontal" H 5350 1650 50  0001 C CNN
F 3 "~" H 5350 1650 50  0001 C CNN
	1    5350 1650
	0    1    1    0   
$EndComp
$Comp
L Device:R_Small R2
U 1 1 60B1F592
P 5350 1750
F 0 "R2" V 5350 1750 50  0000 C CNN
F 1 "1k0" V 5300 1900 50  0000 C CNN
F 2 "Resistor_THT:R_Axial_DIN0204_L3.6mm_D1.6mm_P5.08mm_Horizontal" H 5350 1750 50  0001 C CNN
F 3 "~" H 5350 1750 50  0001 C CNN
	1    5350 1750
	0    1    1    0   
$EndComp
$Comp
L Device:R_Small R3
U 1 1 60B1F85D
P 5350 1850
F 0 "R3" V 5350 1850 50  0000 C CNN
F 1 "1k0" V 5300 2000 50  0000 C CNN
F 2 "Resistor_THT:R_Axial_DIN0204_L3.6mm_D1.6mm_P5.08mm_Horizontal" H 5350 1850 50  0001 C CNN
F 3 "~" H 5350 1850 50  0001 C CNN
	1    5350 1850
	0    1    1    0   
$EndComp
$Comp
L Device:R_Small R4
U 1 1 60B1FA7B
P 5350 1950
F 0 "R4" V 5350 1950 50  0000 C CNN
F 1 "1k0" V 5300 2100 50  0000 C CNN
F 2 "Resistor_THT:R_Axial_DIN0204_L3.6mm_D1.6mm_P5.08mm_Horizontal" H 5350 1950 50  0001 C CNN
F 3 "~" H 5350 1950 50  0001 C CNN
	1    5350 1950
	0    1    1    0   
$EndComp
$Comp
L Device:R_Small R5
U 1 1 60B1FC53
P 5350 2050
F 0 "R5" V 5350 2050 50  0000 C CNN
F 1 "1k0" V 5300 2200 50  0000 C CNN
F 2 "Resistor_THT:R_Axial_DIN0204_L3.6mm_D1.6mm_P5.08mm_Horizontal" H 5350 2050 50  0001 C CNN
F 3 "~" H 5350 2050 50  0001 C CNN
	1    5350 2050
	0    1    1    0   
$EndComp
$Comp
L Device:R_Small R6
U 1 1 60B1FDE6
P 5350 2150
F 0 "R6" V 5350 2150 50  0000 C CNN
F 1 "1k0" V 5300 2300 50  0000 C CNN
F 2 "Resistor_THT:R_Axial_DIN0204_L3.6mm_D1.6mm_P5.08mm_Horizontal" H 5350 2150 50  0001 C CNN
F 3 "~" H 5350 2150 50  0001 C CNN
	1    5350 2150
	0    1    1    0   
$EndComp
$Comp
L Device:R_Small R7
U 1 1 60B1FFD8
P 5350 2250
F 0 "R7" V 5350 2250 50  0000 C CNN
F 1 "1k0" V 5300 2400 50  0000 C CNN
F 2 "Resistor_THT:R_Axial_DIN0204_L3.6mm_D1.6mm_P5.08mm_Horizontal" H 5350 2250 50  0001 C CNN
F 3 "~" H 5350 2250 50  0001 C CNN
	1    5350 2250
	0    1    1    0   
$EndComp
$Comp
L Device:R_Small R8
U 1 1 60B20130
P 5350 2350
F 0 "R8" V 5350 2350 50  0000 C CNN
F 1 "1k0" V 5300 2500 50  0000 C CNN
F 2 "Resistor_THT:R_Axial_DIN0204_L3.6mm_D1.6mm_P5.08mm_Horizontal" H 5350 2350 50  0001 C CNN
F 3 "~" H 5350 2350 50  0001 C CNN
	1    5350 2350
	0    1    1    0   
$EndComp
$Comp
L Device:R_Small R9
U 1 1 60B2047A
P 5350 2450
F 0 "R9" V 5350 2450 50  0000 C CNN
F 1 "10k" V 5300 2600 50  0000 C CNN
F 2 "Resistor_THT:R_Axial_DIN0204_L3.6mm_D1.6mm_P5.08mm_Horizontal" H 5350 2450 50  0001 C CNN
F 3 "~" H 5350 2450 50  0001 C CNN
	1    5350 2450
	0    1    1    0   
$EndComp
$Comp
L Device:R_Small R10
U 1 1 60B20608
P 5350 2550
F 0 "R10" V 5350 2550 50  0000 C CNN
F 1 "10k" V 5300 2700 50  0000 C CNN
F 2 "Resistor_THT:R_Axial_DIN0204_L3.6mm_D1.6mm_P5.08mm_Horizontal" H 5350 2550 50  0001 C CNN
F 3 "~" H 5350 2550 50  0001 C CNN
	1    5350 2550
	0    1    1    0   
$EndComp
$Comp
L Device:R_Small R11
U 1 1 60B208D6
P 5350 2650
F 0 "R11" V 5350 2650 50  0000 C CNN
F 1 "10k" V 5300 2800 50  0000 C CNN
F 2 "Resistor_THT:R_Axial_DIN0204_L3.6mm_D1.6mm_P5.08mm_Horizontal" H 5350 2650 50  0001 C CNN
F 3 "~" H 5350 2650 50  0001 C CNN
	1    5350 2650
	0    1    1    0   
$EndComp
$Comp
L Device:R_Small R12
U 1 1 60B20A55
P 5350 2750
F 0 "R12" V 5350 2750 50  0000 C CNN
F 1 "10k" V 5300 2900 50  0000 C CNN
F 2 "Resistor_THT:R_Axial_DIN0204_L3.6mm_D1.6mm_P5.08mm_Horizontal" H 5350 2750 50  0001 C CNN
F 3 "~" H 5350 2750 50  0001 C CNN
	1    5350 2750
	0    1    1    0   
$EndComp
$Comp
L Device:R_Small R13
U 1 1 60B20B95
P 5350 2850
F 0 "R13" V 5350 2850 50  0000 C CNN
F 1 "10k" V 5300 3000 50  0000 C CNN
F 2 "Resistor_THT:R_Axial_DIN0204_L3.6mm_D1.6mm_P5.08mm_Horizontal" H 5350 2850 50  0001 C CNN
F 3 "~" H 5350 2850 50  0001 C CNN
	1    5350 2850
	0    1    1    0   
$EndComp
$Comp
L Device:R_Small R14
U 1 1 60B20CCB
P 5350 2950
F 0 "R14" V 5350 2950 50  0000 C CNN
F 1 "10k" V 5300 3100 50  0000 C CNN
F 2 "Resistor_THT:R_Axial_DIN0204_L3.6mm_D1.6mm_P5.08mm_Horizontal" H 5350 2950 50  0001 C CNN
F 3 "~" H 5350 2950 50  0001 C CNN
	1    5350 2950
	0    1    1    0   
$EndComp
$Comp
L Device:R_Small R15
U 1 1 60B20DC7
P 5350 3050
F 0 "R15" V 5350 3050 50  0000 C CNN
F 1 "10k" V 5300 3200 50  0000 C CNN
F 2 "Resistor_THT:R_Axial_DIN0204_L3.6mm_D1.6mm_P5.08mm_Horizontal" H 5350 3050 50  0001 C CNN
F 3 "~" H 5350 3050 50  0001 C CNN
	1    5350 3050
	0    1    1    0   
$EndComp
$Comp
L Device:R_Small R16
U 1 1 60B20EA9
P 5350 3150
F 0 "R16" V 5350 3150 50  0000 C CNN
F 1 "10k" V 5300 3300 50  0000 C CNN
F 2 "Resistor_THT:R_Axial_DIN0204_L3.6mm_D1.6mm_P5.08mm_Horizontal" H 5350 3150 50  0001 C CNN
F 3 "~" H 5350 3150 50  0001 C CNN
	1    5350 3150
	0    1    1    0   
$EndComp
Wire Wire Line
	5450 1650 5650 1650
Wire Wire Line
	5450 1750 5650 1750
Wire Wire Line
	5450 1850 5650 1850
Wire Wire Line
	5450 1950 5650 1950
Wire Wire Line
	5450 2050 5650 2050
Wire Wire Line
	5450 2150 5650 2150
Wire Wire Line
	5450 2250 5650 2250
Wire Wire Line
	5450 2350 5650 2350
Wire Wire Line
	5450 2450 5650 2450
Wire Wire Line
	5450 2550 5650 2550
Wire Wire Line
	5450 2650 5650 2650
Wire Wire Line
	5450 2750 5650 2750
Wire Wire Line
	5450 2850 5650 2850
Wire Wire Line
	5450 2950 5650 2950
Wire Wire Line
	5450 3050 5650 3050
$Comp
L power:+3.3V #PWR03
U 1 1 60B8D37B
P 4300 7150
F 0 "#PWR03" H 4300 7000 50  0001 C CNN
F 1 "+3.3V" V 4315 7278 50  0000 L CNN
F 2 "" H 4300 7150 50  0001 C CNN
F 3 "" H 4300 7150 50  0001 C CNN
	1    4300 7150
	0    1    1    0   
$EndComp
$Comp
L power:+3.3V #PWR07
U 1 1 60B8E0CD
P 6600 1150
F 0 "#PWR07" H 6600 1000 50  0001 C CNN
F 1 "+3.3V" V 6615 1278 50  0000 L CNN
F 2 "" H 6600 1150 50  0001 C CNN
F 3 "" H 6600 1150 50  0001 C CNN
	1    6600 1150
	0    1    1    0   
$EndComp
$Comp
L power:+3.3V #PWR08
U 1 1 60B8F1EA
P 8450 3900
F 0 "#PWR08" H 8450 3750 50  0001 C CNN
F 1 "+3.3V" H 8465 4073 50  0000 C CNN
F 2 "" H 8450 3900 50  0001 C CNN
F 3 "" H 8450 3900 50  0001 C CNN
	1    8450 3900
	-1   0    0    1   
$EndComp
Entry Wire Line
	4900 1550 5000 1650
Entry Wire Line
	4900 1650 5000 1750
Entry Wire Line
	4900 1750 5000 1850
Entry Wire Line
	4900 1850 5000 1950
Entry Wire Line
	4900 1950 5000 2050
Entry Wire Line
	4900 2050 5000 2150
Entry Wire Line
	4900 2150 5000 2250
Entry Wire Line
	4900 2250 5000 2350
Entry Wire Line
	4900 2350 5000 2450
Entry Wire Line
	4900 2450 5000 2550
Entry Wire Line
	4900 2550 5000 2650
Entry Wire Line
	4900 2650 5000 2750
Entry Wire Line
	4900 2750 5000 2850
Entry Wire Line
	4900 2850 5000 2950
Text Label 5100 2450 0    50   ~ 0
FI2
Text Label 5100 2550 0    50   ~ 0
A1
Text Label 5100 2650 0    50   ~ 0
A0
Text Label 5050 2750 0    50   ~ 0
~IORD
Text Label 5050 2850 0    50   ~ 0
~IOWR
$Comp
L power:+5V #PWR010
U 1 1 60BC975F
P 950 7150
F 0 "#PWR010" H 950 7000 50  0001 C CNN
F 1 "+5V" V 965 7278 50  0000 L CNN
F 2 "" H 950 7150 50  0001 C CNN
F 3 "" H 950 7150 50  0001 C CNN
	1    950  7150
	0    -1   -1   0   
$EndComp
Wire Wire Line
	7050 3150 7150 3150
Wire Wire Line
	7050 3050 7250 3050
Wire Wire Line
	5450 1350 5650 1350
Wire Wire Line
	3150 7150 3300 7150
$Comp
L Device:C_Small C2
U 1 1 60C1893E
P 3300 7250
F 0 "C2" H 3450 7200 50  0000 C CNN
F 1 "100n" H 3450 7350 50  0000 C CNN
F 2 "Capacitor_THT:C_Disc_D3.0mm_W1.6mm_P2.50mm" H 3300 7250 50  0001 C CNN
F 3 "~" H 3300 7250 50  0001 C CNN
	1    3300 7250
	-1   0    0    1   
$EndComp
Connection ~ 3300 7150
Wire Wire Line
	3300 7150 3600 7150
$Comp
L Device:C_Small C3
U 1 1 60C1995C
P 3600 7250
F 0 "C3" H 3750 7200 50  0000 C CNN
F 1 "100n" H 3750 7350 50  0000 C CNN
F 2 "Capacitor_THT:C_Disc_D3.0mm_W1.6mm_P2.50mm" H 3600 7250 50  0001 C CNN
F 3 "~" H 3600 7250 50  0001 C CNN
	1    3600 7250
	-1   0    0    1   
$EndComp
$Comp
L power:GND #PWR013
U 1 1 60C19D2A
P 3300 7350
F 0 "#PWR013" H 3300 7100 50  0001 C CNN
F 1 "GND" H 3305 7177 50  0000 C CNN
F 2 "" H 3300 7350 50  0001 C CNN
F 3 "" H 3300 7350 50  0001 C CNN
	1    3300 7350
	1    0    0    -1  
$EndComp
$Comp
L power:GND #PWR015
U 1 1 60C1A0DF
P 3600 7350
F 0 "#PWR015" H 3600 7100 50  0001 C CNN
F 1 "GND" H 3605 7177 50  0000 C CNN
F 2 "" H 3600 7350 50  0001 C CNN
F 3 "" H 3600 7350 50  0001 C CNN
	1    3600 7350
	1    0    0    -1  
$EndComp
$Comp
L Device:CP_Small C4
U 1 1 60C1AAC8
P 3900 7250
F 0 "C4" H 3988 7296 50  0000 L CNN
F 1 "470u" H 3988 7205 50  0000 L CNN
F 2 "Capacitor_THT:CP_Radial_D10.0mm_P5.00mm" H 3900 7250 50  0001 C CNN
F 3 "~" H 3900 7250 50  0001 C CNN
	1    3900 7250
	1    0    0    -1  
$EndComp
$Comp
L power:GND #PWR017
U 1 1 60C1B320
P 3900 7350
F 0 "#PWR017" H 3900 7100 50  0001 C CNN
F 1 "GND" H 3905 7177 50  0000 C CNN
F 2 "" H 3900 7350 50  0001 C CNN
F 3 "" H 3900 7350 50  0001 C CNN
	1    3900 7350
	1    0    0    -1  
$EndComp
Wire Wire Line
	4300 7150 3900 7150
$Comp
L Device:R_Small R17
U 1 1 60C2B7A8
P 7150 1650
F 0 "R17" V 7150 1650 50  0000 C CNN
F 1 "240" V 7100 1800 50  0000 C CNN
F 2 "Resistor_THT:R_Axial_DIN0204_L3.6mm_D1.6mm_P5.08mm_Horizontal" H 7150 1650 50  0001 C CNN
F 3 "~" H 7150 1650 50  0001 C CNN
	1    7150 1650
	0    1    1    0   
$EndComp
$Comp
L Device:R_Small R18
U 1 1 60C2BE8A
P 7150 1750
F 0 "R18" V 7150 1750 50  0000 C CNN
F 1 "240" V 7100 1900 50  0000 C CNN
F 2 "Resistor_THT:R_Axial_DIN0204_L3.6mm_D1.6mm_P5.08mm_Horizontal" H 7150 1750 50  0001 C CNN
F 3 "~" H 7150 1750 50  0001 C CNN
	1    7150 1750
	0    1    1    0   
$EndComp
$Comp
L Device:R_Small R19
U 1 1 60C2C18A
P 7150 1850
F 0 "R19" V 7150 1850 50  0000 C CNN
F 1 "470" V 7100 2000 50  0000 C CNN
F 2 "Resistor_THT:R_Axial_DIN0204_L3.6mm_D1.6mm_P5.08mm_Horizontal" H 7150 1850 50  0001 C CNN
F 3 "~" H 7150 1850 50  0001 C CNN
	1    7150 1850
	0    1    1    0   
$EndComp
$Comp
L Device:R_Small R20
U 1 1 60C2C3C3
P 7150 1950
F 0 "R20" V 7150 1950 50  0000 C CNN
F 1 "240" V 7100 2100 50  0000 C CNN
F 2 "Resistor_THT:R_Axial_DIN0204_L3.6mm_D1.6mm_P5.08mm_Horizontal" H 7150 1950 50  0001 C CNN
F 3 "~" H 7150 1950 50  0001 C CNN
	1    7150 1950
	0    1    1    0   
$EndComp
$Comp
L Device:R_Small R21
U 1 1 60C2C54F
P 7150 2050
F 0 "R21" V 7150 2050 50  0000 C CNN
F 1 "470" V 7100 2200 50  0000 C CNN
F 2 "Resistor_THT:R_Axial_DIN0204_L3.6mm_D1.6mm_P5.08mm_Horizontal" H 7150 2050 50  0001 C CNN
F 3 "~" H 7150 2050 50  0001 C CNN
	1    7150 2050
	0    1    1    0   
$EndComp
$Comp
L Device:R_Small R22
U 1 1 60C2C705
P 7150 2150
F 0 "R22" V 7150 2150 50  0000 C CNN
F 1 "240" V 7100 2300 50  0000 C CNN
F 2 "Resistor_THT:R_Axial_DIN0204_L3.6mm_D1.6mm_P5.08mm_Horizontal" H 7150 2150 50  0001 C CNN
F 3 "~" H 7150 2150 50  0001 C CNN
	1    7150 2150
	0    1    1    0   
$EndComp
$Comp
L Device:R_Small R23
U 1 1 60C2C878
P 7150 2250
F 0 "R23" V 7150 2250 50  0000 C CNN
F 1 "470" V 7100 2400 50  0000 C CNN
F 2 "Resistor_THT:R_Axial_DIN0204_L3.6mm_D1.6mm_P5.08mm_Horizontal" H 7150 2250 50  0001 C CNN
F 3 "~" H 7150 2250 50  0001 C CNN
	1    7150 2250
	0    1    1    0   
$EndComp
$Comp
L Device:R_Small R24
U 1 1 60C2C91A
P 7150 2350
F 0 "R24" V 7150 2350 50  0000 C CNN
F 1 "240" V 7100 2500 50  0000 C CNN
F 2 "Resistor_THT:R_Axial_DIN0204_L3.6mm_D1.6mm_P5.08mm_Horizontal" H 7150 2350 50  0001 C CNN
F 3 "~" H 7150 2350 50  0001 C CNN
	1    7150 2350
	0    1    1    0   
$EndComp
Text Label 7450 1650 0    50   ~ 0
VSYNC
Wire Wire Line
	7250 1650 7750 1650
Wire Wire Line
	7250 1750 7750 1750
Text Label 7450 1750 0    50   ~ 0
HSYNC
Wire Wire Line
	7250 1850 7400 1850
Wire Wire Line
	7400 1850 7400 1900
Wire Wire Line
	7400 1950 7250 1950
Wire Wire Line
	7250 2050 7400 2050
Wire Wire Line
	7400 2050 7400 2100
Wire Wire Line
	7400 2150 7250 2150
Wire Wire Line
	7250 2250 7400 2250
Wire Wire Line
	7400 2250 7400 2300
Wire Wire Line
	7400 2350 7250 2350
Wire Wire Line
	7400 1900 7750 1900
Connection ~ 7400 1900
Wire Wire Line
	7400 1900 7400 1950
Wire Wire Line
	7400 2100 7750 2100
Connection ~ 7400 2100
Wire Wire Line
	7400 2100 7400 2150
Wire Wire Line
	7400 2300 7750 2300
Connection ~ 7400 2300
Wire Wire Line
	7400 2300 7400 2350
Text Label 7450 1900 0    50   ~ 0
BLUE
Text Label 7450 2100 0    50   ~ 0
GREEN
Text Label 7450 2300 0    50   ~ 0
RED
$Comp
L Device:C_Small C1
U 1 1 60C6646D
P 2400 7250
F 0 "C1" H 2550 7200 50  0000 C CNN
F 1 "100n" H 2550 7350 50  0000 C CNN
F 2 "Capacitor_THT:C_Disc_D3.0mm_W1.6mm_P2.50mm" H 2400 7250 50  0001 C CNN
F 3 "~" H 2400 7250 50  0001 C CNN
	1    2400 7250
	-1   0    0    1   
$EndComp
Connection ~ 2400 7150
$Comp
L power:GND #PWR011
U 1 1 60C6676A
P 2400 7350
F 0 "#PWR011" H 2400 7100 50  0001 C CNN
F 1 "GND" H 2405 7177 50  0000 C CNN
F 2 "" H 2400 7350 50  0001 C CNN
F 3 "" H 2400 7350 50  0001 C CNN
	1    2400 7350
	1    0    0    -1  
$EndComp
$Comp
L Device:Crystal_Small Y1
U 1 1 60C6734B
P 7150 1400
F 0 "Y1" V 7000 1350 50  0000 L CNN
F 1 "5 MHz" V 7150 1500 50  0000 L CNN
F 2 "Crystal:Crystal_HC49-4H_Vertical" H 7150 1400 50  0001 C CNN
F 3 "~" H 7150 1400 50  0001 C CNN
	1    7150 1400
	0    1    1    0   
$EndComp
Wire Wire Line
	7150 1300 7050 1300
Wire Wire Line
	7050 1300 7050 1350
Wire Wire Line
	7150 1500 7050 1500
Wire Wire Line
	7050 1500 7050 1450
Wire Wire Line
	7050 2950 7350 2950
Wire Wire Line
	7350 2950 7350 3600
Wire Wire Line
	7350 3600 7900 3600
Wire Wire Line
	7450 2850 7450 3500
Wire Wire Line
	7450 3500 8050 3500
Wire Wire Line
	7050 2850 7450 2850
Text Label 5450 1350 0    50   ~ 0
~RES
Wire Wire Line
	5450 3150 5550 3150
Connection ~ 5550 3150
Wire Wire Line
	5550 3150 5650 3150
$Comp
L power:GND #PWR024
U 1 1 60CED301
P 5550 3550
F 0 "#PWR024" H 5550 3300 50  0001 C CNN
F 1 "GND" H 5555 3377 50  0000 C CNN
F 2 "" H 5550 3550 50  0001 C CNN
F 3 "" H 5550 3550 50  0001 C CNN
	1    5550 3550
	1    0    0    -1  
$EndComp
Text Label 7450 2450 0    50   ~ 0
SD_CS
Text Label 7450 2550 0    50   ~ 0
SD_DI
Text Label 7450 2650 0    50   ~ 0
SD_SCK
Text Label 7450 2750 0    50   ~ 0
SD_DO
Wire Wire Line
	7050 2450 8150 2450
$Comp
L Device:R_Small R26
U 1 1 60DA8986
P 8150 2150
F 0 "R26" V 8150 2150 50  0000 C CNN
F 1 "10k" V 8050 2200 50  0000 C CNN
F 2 "Resistor_THT:R_Axial_DIN0204_L3.6mm_D1.6mm_P5.08mm_Horizontal" H 8150 2150 50  0001 C CNN
F 3 "~" H 8150 2150 50  0001 C CNN
	1    8150 2150
	-1   0    0    1   
$EndComp
$Comp
L power:+3.3V #PWR025
U 1 1 60DA9691
P 8150 1950
F 0 "#PWR025" H 8150 1800 50  0001 C CNN
F 1 "+3.3V" H 8165 2123 50  0000 C CNN
F 2 "" H 8150 1950 50  0001 C CNN
F 3 "" H 8150 1950 50  0001 C CNN
	1    8150 1950
	1    0    0    -1  
$EndComp
Wire Wire Line
	8150 1950 8150 2000
$Comp
L Connector:DB15_Female_HighDensity_MountingHoles J3
U 1 1 60DD53AB
P 10250 1600
F 0 "J3" H 10250 2467 50  0000 C CNN
F 1 "VGA" H 10250 2376 50  0000 C CNN
F 2 "Connector_Dsub:DSUB-15-HD_Female_Horizontal_P2.29x1.98mm_EdgePinOffset8.35mm_Housed_MountingHolesOffset10.89mm" H 9300 2000 50  0001 C CNN
F 3 " ~" H 9300 2000 50  0001 C CNN
	1    10250 1600
	1    0    0    -1  
$EndComp
Wire Wire Line
	9950 1100 9800 1100
Wire Wire Line
	9800 1500 9950 1500
Wire Wire Line
	9800 1900 9950 1900
Connection ~ 9800 1500
Wire Wire Line
	9800 1900 9800 2000
Wire Wire Line
	9800 2000 9950 2000
Connection ~ 9800 1900
NoConn ~ 10550 1200
NoConn ~ 10550 1400
NoConn ~ 10550 2000
NoConn ~ 9950 1800
NoConn ~ 9950 1700
Wire Wire Line
	9950 1200 9500 1200
Wire Wire Line
	9800 1100 9800 1300
Wire Wire Line
	9950 1300 9800 1300
Connection ~ 9800 1300
Wire Wire Line
	9800 1300 9800 1500
Wire Wire Line
	9950 1400 9500 1400
Wire Wire Line
	9800 1500 9800 1900
Wire Wire Line
	9950 1600 9500 1600
Wire Wire Line
	10550 1600 10950 1600
Wire Wire Line
	10550 1800 10950 1800
Text Label 9500 1200 0    50   ~ 0
RED
Text Label 9500 1400 0    50   ~ 0
GREEN
Text Label 9500 1600 0    50   ~ 0
BLUE
Text Label 10700 1600 0    50   ~ 0
HSYNC
Text Label 10700 1800 0    50   ~ 0
VSYNC
$Comp
L power:GND #PWR029
U 1 1 60E882CD
P 10250 2300
F 0 "#PWR029" H 10250 2050 50  0001 C CNN
F 1 "GND" H 10255 2127 50  0000 C CNN
F 2 "" H 10250 2300 50  0001 C CNN
F 3 "" H 10250 2300 50  0001 C CNN
	1    10250 2300
	1    0    0    -1  
$EndComp
Text Label 1150 2450 0    50   ~ 0
RESET
Wire Wire Line
	1350 2450 1150 2450
Wire Wire Line
	1900 2250 2150 2250
Text Label 1950 2250 0    50   ~ 0
A6
Wire Wire Line
	1900 2150 2150 2150
Text Label 1950 2150 0    50   ~ 0
A4
Wire Wire Line
	1900 2050 2150 2050
Text Label 1950 2050 0    50   ~ 0
A3
Text Label 1950 1650 0    50   ~ 0
~INTA
Wire Wire Line
	1900 1750 2150 1750
Text Label 1950 1750 0    50   ~ 0
~INT
Wire Wire Line
	1900 1650 2150 1650
NoConn ~ 2150 1650
Text Label 5000 3050 0    50   ~ 0
~CS_6x
Wire Wire Line
	8150 2250 8150 2450
$Comp
L Connector_Generic:Conn_01x07 J2
U 1 1 60AA6DD5
P 9300 2550
F 0 "J2" H 9300 2100 50  0000 C CNN
F 1 "SDHC Card" H 9600 2550 50  0000 C CNN
F 2 "Connector_PinHeader_2.54mm:PinHeader_1x07_P2.54mm_Vertical" H 9300 2550 50  0001 C CNN
F 3 "~" H 9300 2550 50  0001 C CNN
	1    9300 2550
	1    0    0    1   
$EndComp
Wire Wire Line
	8150 2450 8550 2450
Connection ~ 8150 2450
Wire Wire Line
	7050 2550 8650 2550
Wire Wire Line
	7050 2650 8750 2650
Wire Wire Line
	8550 2250 9100 2250
Wire Wire Line
	8550 2250 8550 2450
Wire Wire Line
	8650 2350 9100 2350
Wire Wire Line
	8650 2350 8650 2550
Wire Wire Line
	9100 2550 8750 2550
Wire Wire Line
	8750 2550 8750 2650
Wire Wire Line
	7050 2750 8400 2750
NoConn ~ 9100 2850
$Comp
L power:GND #PWR019
U 1 1 60AF7CC6
P 9050 2650
F 0 "#PWR019" H 9050 2400 50  0001 C CNN
F 1 "GND" V 9050 2450 50  0000 C CNN
F 2 "" H 9050 2650 50  0001 C CNN
F 3 "" H 9050 2650 50  0001 C CNN
	1    9050 2650
	0    1    1    0   
$EndComp
Wire Wire Line
	9050 2650 9100 2650
$Comp
L power:+3.3V #PWR018
U 1 1 60B02451
P 9050 2450
F 0 "#PWR018" H 9050 2300 50  0001 C CNN
F 1 "+3.3V" V 9050 2700 50  0000 C CNN
F 2 "" H 9050 2450 50  0001 C CNN
F 3 "" H 9050 2450 50  0001 C CNN
	1    9050 2450
	0    -1   -1   0   
$EndComp
Wire Wire Line
	9100 2450 9050 2450
$Comp
L Connector_Generic:Conn_01x04 J1
U 1 1 60B1D514
P 7250 4150
F 0 "J1" V 7122 4330 50  0000 L CNN
F 1 "USB/UART TTL" V 7400 3850 50  0000 L CNN
F 2 "Connector_PinHeader_2.54mm:PinHeader_1x04_P2.54mm_Vertical" H 7250 4150 50  0001 C CNN
F 3 "~" H 7250 4150 50  0001 C CNN
	1    7250 4150
	0    1    1    0   
$EndComp
Wire Wire Line
	7150 3150 7150 3950
Wire Wire Line
	7250 3050 7250 3950
Wire Wire Line
	7350 3750 7350 3950
$Comp
L power:GND #PWR016
U 1 1 60B4DB3D
P 7050 3950
F 0 "#PWR016" H 7050 3700 50  0001 C CNN
F 1 "GND" H 7055 3777 50  0000 C CNN
F 2 "" H 7050 3950 50  0001 C CNN
F 3 "" H 7050 3950 50  0001 C CNN
	1    7050 3950
	-1   0    0    1   
$EndComp
Text Label 7350 3850 0    50   ~ 0
~RES
$Comp
L power:PWR_FLAG #FLG0101
U 1 1 61038FB4
P 2150 3050
F 0 "#FLG0101" H 2150 3125 50  0001 C CNN
F 1 "PWR_FLAG" V 2150 3350 50  0000 C CNN
F 2 "" H 2150 3050 50  0001 C CNN
F 3 "~" H 2150 3050 50  0001 C CNN
	1    2150 3050
	0    1    1    0   
$EndComp
$Comp
L power:PWR_FLAG #FLG0102
U 1 1 61042B9F
P 2150 2950
F 0 "#FLG0102" H 2150 3025 50  0001 C CNN
F 1 "PWR_FLAG" V 2150 3250 50  0000 C CNN
F 2 "" H 2150 2950 50  0001 C CNN
F 3 "~" H 2150 2950 50  0001 C CNN
	1    2150 2950
	0    1    1    0   
$EndComp
Wire Wire Line
	1150 2950 1350 2950
Wire Wire Line
	1150 3050 1350 3050
$Comp
L power:+5V #PWR014
U 1 1 60BC8DA2
P 1150 2950
F 0 "#PWR014" H 1150 2800 50  0001 C CNN
F 1 "+5V" V 1165 3078 50  0000 L CNN
F 2 "" H 1150 2950 50  0001 C CNN
F 3 "" H 1150 2950 50  0001 C CNN
	1    1150 2950
	0    -1   -1   0   
$EndComp
Text Label 2450 2350 1    50   ~ 0
~IORD
$Comp
L power:+5V #PWR012
U 1 1 60AA66F5
P 2450 1950
F 0 "#PWR012" H 2450 1800 50  0001 C CNN
F 1 "+5V" V 2465 2078 50  0000 L CNN
F 2 "" H 2450 1950 50  0001 C CNN
F 3 "" H 2450 1950 50  0001 C CNN
	1    2450 1950
	1    0    0    -1  
$EndComp
$Comp
L Device:R_Small R25
U 1 1 60AA621A
P 2450 2050
F 0 "R25" V 2450 2050 50  0000 C CNN
F 1 "4k7" V 2400 2200 50  0000 C CNN
F 2 "Resistor_THT:R_Axial_DIN0204_L3.6mm_D1.6mm_P5.08mm_Horizontal" H 2450 2050 50  0001 C CNN
F 3 "~" H 2450 2050 50  0001 C CNN
	1    2450 2050
	1    0    0    -1  
$EndComp
Wire Wire Line
	5100 3150 5250 3150
$Comp
L power:+3.3V #PWR023
U 1 1 60CED627
P 5100 3150
F 0 "#PWR023" H 5100 3000 50  0001 C CNN
F 1 "+3.3V" V 5115 3278 50  0000 L CNN
F 2 "" H 5100 3150 50  0001 C CNN
F 3 "" H 5100 3150 50  0001 C CNN
	1    5100 3150
	0    -1   -1   0   
$EndComp
$Comp
L Switch:SW_Push SW1
U 1 1 60CBFD68
P 5550 3350
F 0 "SW1" V 5504 3498 50  0000 L CNN
F 1 "Color mode switch" V 5550 2550 50  0000 L CNN
F 2 "Button_Switch_THT:SW_Tactile_SPST_Angled_PTS645Vx83-2LFS" H 5550 3550 50  0001 C CNN
F 3 "~" H 5550 3550 50  0001 C CNN
	1    5550 3350
	0    1    1    0   
$EndComp
Entry Wire Line
	2250 2550 2350 2450
Wire Wire Line
	2350 2450 2450 2450
Wire Wire Line
	2450 2150 2450 2450
Connection ~ 2250 1450
Entry Wire Line
	2150 2350 2250 2250
Entry Wire Line
	2150 2250 2250 2150
Entry Wire Line
	2150 2150 2250 2050
Entry Wire Line
	1050 2550 1150 2650
Wire Wire Line
	950  7150 1250 7150
$Comp
L Device:C_Small C5
U 1 1 60D070FC
P 1250 7250
F 0 "C5" H 1400 7200 50  0000 C CNN
F 1 "100n" H 1400 7350 50  0000 C CNN
F 2 "Capacitor_THT:C_Disc_D3.0mm_W1.6mm_P2.50mm" H 1250 7250 50  0001 C CNN
F 3 "~" H 1250 7250 50  0001 C CNN
	1    1250 7250
	-1   0    0    1   
$EndComp
$Comp
L power:GND #PWR026
U 1 1 60D07102
P 1250 7350
F 0 "#PWR026" H 1250 7100 50  0001 C CNN
F 1 "GND" H 1255 7177 50  0000 C CNN
F 2 "" H 1250 7350 50  0001 C CNN
F 3 "" H 1250 7350 50  0001 C CNN
	1    1250 7350
	1    0    0    -1  
$EndComp
$Comp
L Device:R_Small R28
U 1 1 60B32998
P 8400 2150
F 0 "R28" V 8400 2150 50  0000 C CNN
F 1 "10k" V 8300 2200 50  0000 C CNN
F 2 "Resistor_THT:R_Axial_DIN0204_L3.6mm_D1.6mm_P5.08mm_Horizontal" H 8400 2150 50  0001 C CNN
F 3 "~" H 8400 2150 50  0001 C CNN
	1    8400 2150
	-1   0    0    1   
$EndComp
Wire Wire Line
	8400 2250 8400 2750
Connection ~ 8400 2750
Wire Wire Line
	8400 2750 9100 2750
Wire Wire Line
	8150 2000 8400 2000
Wire Wire Line
	8400 2000 8400 2050
Connection ~ 8150 2000
Wire Wire Line
	8150 2000 8150 2050
Text Label 5100 1650 0    50   ~ 0
D7
Text Label 5100 1750 0    50   ~ 0
D6
Text Label 5100 1850 0    50   ~ 0
D5
Text Label 5100 1950 0    50   ~ 0
D4
Text Label 5100 2050 0    50   ~ 0
D3
Text Label 5100 2150 0    50   ~ 0
D2
Text Label 5100 2250 0    50   ~ 0
D1
Text Label 5100 2350 0    50   ~ 0
D0
$Comp
L Device:R_Small R27
U 1 1 60D90AA0
P 7900 3750
F 0 "R27" V 7900 3750 50  0000 C CNN
F 1 "10k" V 7800 3750 50  0000 C CNN
F 2 "Resistor_THT:R_Axial_DIN0204_L3.6mm_D1.6mm_P5.08mm_Horizontal" H 7900 3750 50  0001 C CNN
F 3 "~" H 7900 3750 50  0001 C CNN
	1    7900 3750
	-1   0    0    1   
$EndComp
Wire Wire Line
	7900 3850 8450 3850
Connection ~ 8450 3850
Wire Wire Line
	8450 3850 8450 3800
Wire Wire Line
	7900 3650 7900 3600
Connection ~ 7900 3600
Wire Wire Line
	7900 3600 8050 3600
$Comp
L ATF22V10-PDIP-AP:ATF22V10-PDIP U4
U 1 1 60DE137D
P 3650 2450
F 0 "U4" H 3650 3350 50  0000 C CNN
F 1 "ATF22V10-PDIP" H 3650 3250 50  0000 C CNN
F 2 "Package_DIP:DIP-24_W7.62mm_LongPads" H 3000 2650 50  0001 C CNN
F 3 "" H 3000 2650 50  0001 C CNN
	1    3650 2450
	1    0    0    -1  
$EndComp
$Comp
L power:GND #PWR0101
U 1 1 60DE2EEA
P 3650 3100
F 0 "#PWR0101" H 3650 2850 50  0001 C CNN
F 1 "GND" H 3655 2927 50  0000 C CNN
F 2 "" H 3650 3100 50  0001 C CNN
F 3 "" H 3650 3100 50  0001 C CNN
	1    3650 3100
	1    0    0    -1  
$EndComp
$Comp
L power:+5V #PWR0102
U 1 1 60DE3314
P 3600 1750
F 0 "#PWR0102" H 3600 1600 50  0001 C CNN
F 1 "+5V" V 3615 1878 50  0000 L CNN
F 2 "" H 3600 1750 50  0001 C CNN
F 3 "" H 3600 1750 50  0001 C CNN
	1    3600 1750
	0    -1   -1   0   
$EndComp
Wire Wire Line
	3600 1750 3650 1750
Wire Wire Line
	3650 1750 3650 1800
Entry Wire Line
	2800 1950 2900 2050
Entry Wire Line
	2800 2050 2900 2150
Entry Wire Line
	2800 2150 2900 2250
Entry Wire Line
	2800 2250 2900 2350
Entry Wire Line
	2800 2350 2900 2450
Entry Wire Line
	2800 2450 2900 2550
Entry Wire Line
	2800 2550 2900 2650
Entry Wire Line
	2800 2650 2900 2750
Entry Wire Line
	2800 2750 2900 2850
Entry Wire Line
	2800 2850 2900 2950
Entry Wire Line
	4550 1950 4650 1850
Entry Wire Line
	4550 2650 4650 2550
Entry Wire Line
	4550 2750 4650 2650
Entry Wire Line
	4550 2850 4650 2750
Entry Wire Line
	4550 2950 4650 2850
Wire Wire Line
	2900 2050 3150 2050
Wire Wire Line
	2900 2150 3150 2150
Wire Wire Line
	2900 2250 3150 2250
Wire Wire Line
	2900 2350 3150 2350
Wire Wire Line
	2900 2450 3150 2450
Wire Wire Line
	2900 2550 3150 2550
Wire Wire Line
	2900 2650 3150 2650
Wire Wire Line
	2900 2750 3150 2750
Wire Wire Line
	2900 2850 3150 2850
Wire Wire Line
	2900 2950 3150 2950
Text Label 3000 2050 0    50   ~ 0
A0
Text Label 3000 2150 0    50   ~ 0
A1
Text Label 3000 2250 0    50   ~ 0
A2
Text Label 3000 2350 0    50   ~ 0
A3
Text Label 3000 2450 0    50   ~ 0
A4
Text Label 3000 2550 0    50   ~ 0
A5
Text Label 3000 2650 0    50   ~ 0
A6
Text Label 3000 2750 0    50   ~ 0
A7
Entry Wire Line
	2800 1850 2900 1950
Wire Wire Line
	3150 1950 2900 1950
Text Label 2950 1950 0    50   ~ 0
~IOWR
Text Label 3000 2850 0    50   ~ 0
D0
Text Label 3000 2950 0    50   ~ 0
IRQ
Text Label 4200 2950 0    50   ~ 0
RESET
Text Label 4200 2850 0    50   ~ 0
~CS_6x
Text Label 4200 2750 0    50   ~ 0
~CS_8253
Connection ~ 4650 1450
Wire Bus Line
	4550 1450 4650 1450
Wire Wire Line
	4150 1950 4550 1950
Wire Wire Line
	4150 2650 4550 2650
Wire Wire Line
	4150 2750 4550 2750
Wire Wire Line
	4150 2850 4550 2850
Wire Wire Line
	4150 2950 4550 2950
Text Label 4200 2650 0    50   ~ 0
~CS_SAA
Text Label 4200 1950 0    50   ~ 0
~INT
Text Label 4200 2050 0    50   ~ 0
IE
NoConn ~ 4150 2150
NoConn ~ 4150 2250
NoConn ~ 4150 2350
NoConn ~ 4150 2450
NoConn ~ 4350 2050
Entry Wire Line
	1050 2350 1150 2450
Entry Wire Line
	2150 2050 2250 1950
Entry Wire Line
	2150 1750 2250 1650
Entry Wire Line
	4900 2950 5000 3050
Wire Bus Line
	4650 1450 4900 1450
Wire Wire Line
	5000 1650 5250 1650
Wire Wire Line
	5000 1750 5250 1750
Wire Wire Line
	5000 1850 5250 1850
Wire Wire Line
	5000 1950 5250 1950
Wire Wire Line
	5000 2050 5250 2050
Wire Wire Line
	5000 2150 5250 2150
Wire Wire Line
	5000 2250 5250 2250
Wire Wire Line
	5000 2350 5250 2350
Wire Wire Line
	5000 2450 5250 2450
Wire Wire Line
	5000 2550 5250 2550
Wire Wire Line
	5000 2650 5250 2650
Wire Wire Line
	5000 2750 5250 2750
Wire Wire Line
	5000 2850 5250 2850
Wire Wire Line
	5000 2950 5250 2950
Wire Wire Line
	5000 3050 5250 3050
$Comp
L Timer:8253 U5
U 1 1 6122FBF6
P 1800 5300
F 0 "U5" H 2000 6300 50  0000 C CNN
F 1 "8253" H 2050 6200 50  0000 C CNN
F 2 "Package_DIP:DIP-24_W15.24mm" H 1850 5550 50  0001 C CNN
F 3 "http://www.cpcwiki.eu/imgs/e/e3/8253.pdf" H 1350 6200 50  0001 C CNN
	1    1800 5300
	1    0    0    -1  
$EndComp
$Comp
L SAA1099:SAA1099 U7
U 1 1 6127BE38
P 5900 5250
F 0 "U7" H 6050 6000 50  0000 C CNN
F 1 "SAA1099" H 6150 5900 50  0000 C CNN
F 2 "Package_DIP:DIP-18_W7.62mm" H 5900 6600 50  0001 C CNN
F 3 "" H 5900 6600 50  0001 C CNN
	1    5900 5250
	1    0    0    -1  
$EndComp
Entry Wire Line
	750  4500 850  4600
Entry Wire Line
	750  4600 850  4700
Entry Wire Line
	750  4700 850  4800
Entry Wire Line
	750  4800 850  4900
Entry Wire Line
	750  4900 850  5000
Entry Wire Line
	750  5000 850  5100
Entry Wire Line
	750  5100 850  5200
Entry Wire Line
	750  5200 850  5300
Text Label 1000 4600 0    50   ~ 0
D0
Text Label 1000 4700 0    50   ~ 0
D1
Text Label 1000 4800 0    50   ~ 0
D2
Text Label 1000 4900 0    50   ~ 0
D3
Text Label 1000 5000 0    50   ~ 0
D4
Text Label 1000 5100 0    50   ~ 0
D5
Text Label 1000 5200 0    50   ~ 0
D6
Text Label 1000 5300 0    50   ~ 0
D7
Entry Wire Line
	750  5500 850  5600
Entry Wire Line
	750  5600 850  5700
Entry Wire Line
	750  5700 850  5800
Entry Wire Line
	750  5900 850  6000
Text Label 950  5600 0    50   ~ 0
~IOWR
Text Label 1000 5700 0    50   ~ 0
A0
Text Label 1000 5800 0    50   ~ 0
A1
Text Label 850  6000 0    50   ~ 0
~CS_8253
Wire Wire Line
	850  4600 1200 4600
Wire Wire Line
	850  4700 1200 4700
Wire Wire Line
	850  4800 1200 4800
Wire Wire Line
	850  4900 1200 4900
Wire Wire Line
	850  5000 1200 5000
Wire Wire Line
	850  5100 1200 5100
Wire Wire Line
	850  5200 1200 5200
Wire Wire Line
	850  5300 1200 5300
Wire Wire Line
	850  5600 1200 5600
Wire Wire Line
	850  5700 1200 5700
Wire Wire Line
	850  5800 1200 5800
Wire Wire Line
	850  6000 1200 6000
$Comp
L power:GND #PWR0103
U 1 1 6153B9AE
P 2500 5450
F 0 "#PWR0103" H 2500 5200 50  0001 C CNN
F 1 "GND" H 2505 5277 50  0000 C CNN
F 2 "" H 2500 5450 50  0001 C CNN
F 3 "" H 2500 5450 50  0001 C CNN
	1    2500 5450
	1    0    0    -1  
$EndComp
Wire Wire Line
	2400 5200 2500 5200
Wire Wire Line
	2500 5200 2500 5300
Wire Wire Line
	2400 5300 2500 5300
Connection ~ 2500 5300
Wire Wire Line
	2500 5300 2500 5450
$Comp
L power:GND #PWR0104
U 1 1 6155A680
P 2500 5950
F 0 "#PWR0104" H 2500 5700 50  0001 C CNN
F 1 "GND" H 2505 5777 50  0000 C CNN
F 2 "" H 2500 5950 50  0001 C CNN
F 3 "" H 2500 5950 50  0001 C CNN
	1    2500 5950
	1    0    0    -1  
$EndComp
Wire Wire Line
	2400 5700 2500 5700
Wire Wire Line
	2500 5700 2500 5800
Wire Wire Line
	2400 5800 2500 5800
Connection ~ 2500 5800
Wire Wire Line
	2500 5800 2500 5950
NoConn ~ 2400 5900
NoConn ~ 2400 5400
$Comp
L power:GND #PWR0105
U 1 1 615984B9
P 1800 6300
F 0 "#PWR0105" H 1800 6050 50  0001 C CNN
F 1 "GND" H 1805 6127 50  0000 C CNN
F 2 "" H 1800 6300 50  0001 C CNN
F 3 "" H 1800 6300 50  0001 C CNN
	1    1800 6300
	1    0    0    -1  
$EndComp
$Comp
L power:GND #PWR0106
U 1 1 61598895
P 5900 5950
F 0 "#PWR0106" H 5900 5700 50  0001 C CNN
F 1 "GND" H 5905 5777 50  0000 C CNN
F 2 "" H 5900 5950 50  0001 C CNN
F 3 "" H 5900 5950 50  0001 C CNN
	1    5900 5950
	1    0    0    -1  
$EndComp
$Comp
L power:GND #PWR0107
U 1 1 61598C2E
P 3450 6000
F 0 "#PWR0107" H 3450 5750 50  0001 C CNN
F 1 "GND" H 3455 5827 50  0000 C CNN
F 2 "" H 3450 6000 50  0001 C CNN
F 3 "" H 3450 6000 50  0001 C CNN
	1    3450 6000
	1    0    0    -1  
$EndComp
$Comp
L power:+5V #PWR0108
U 1 1 6159915C
P 3450 4800
F 0 "#PWR0108" H 3450 4650 50  0001 C CNN
F 1 "+5V" V 3465 4928 50  0000 L CNN
F 2 "" H 3450 4800 50  0001 C CNN
F 3 "" H 3450 4800 50  0001 C CNN
	1    3450 4800
	1    0    0    -1  
$EndComp
$Comp
L power:+5V #PWR0109
U 1 1 61599E58
P 1800 4300
F 0 "#PWR0109" H 1800 4150 50  0001 C CNN
F 1 "+5V" V 1815 4428 50  0000 L CNN
F 2 "" H 1800 4300 50  0001 C CNN
F 3 "" H 1800 4300 50  0001 C CNN
	1    1800 4300
	1    0    0    -1  
$EndComp
$Comp
L power:+5V #PWR0110
U 1 1 615BABE0
P 5900 4550
F 0 "#PWR0110" H 5900 4400 50  0001 C CNN
F 1 "+5V" V 5915 4678 50  0000 L CNN
F 2 "" H 5900 4550 50  0001 C CNN
F 3 "" H 5900 4550 50  0001 C CNN
	1    5900 4550
	1    0    0    -1  
$EndComp
$Comp
L MCU_Microchip_ATtiny:ATtiny25-20PU U6
U 1 1 6123428B
P 3450 5400
F 0 "U6" H 3650 6050 50  0000 R CNN
F 1 "ATtiny25-20PU" H 4100 5950 50  0000 R CNN
F 2 "Package_DIP:DIP-8_W7.62mm" H 3450 5400 50  0001 C CIN
F 3 "http://ww1.microchip.com/downloads/en/DeviceDoc/atmel-2586-avr-8-bit-microcontroller-attiny25-attiny45-attiny85_datasheet.pdf" H 3450 5400 50  0001 C CNN
	1    3450 5400
	1    0    0    -1  
$EndComp
$Comp
L Device:Crystal_Small Y2
U 1 1 6166DC6B
P 4250 5500
F 0 "Y2" H 4350 5450 50  0000 L CNN
F 1 "16 MHz" H 3800 5500 50  0000 L CNN
F 2 "Crystal:Crystal_HC49-4H_Vertical" H 4250 5500 50  0001 C CNN
F 3 "~" H 4250 5500 50  0001 C CNN
	1    4250 5500
	-1   0    0    1   
$EndComp
Wire Wire Line
	4150 5600 4150 5500
Wire Wire Line
	4150 5500 4050 5500
$Comp
L Device:C_Small C9
U 1 1 6168F879
P 4150 5700
F 0 "C9" H 4100 5650 50  0000 C CNN
F 1 "22p" H 4050 5800 50  0000 C CNN
F 2 "Capacitor_THT:C_Disc_D3.0mm_W1.6mm_P2.50mm" H 4150 5700 50  0001 C CNN
F 3 "~" H 4150 5700 50  0001 C CNN
	1    4150 5700
	-1   0    0    1   
$EndComp
Connection ~ 4150 5500
$Comp
L Device:C_Small C10
U 1 1 6169127B
P 4350 5700
F 0 "C10" H 4250 5650 50  0000 C CNN
F 1 "22p" H 4250 5800 50  0000 C CNN
F 2 "Capacitor_THT:C_Disc_D3.0mm_W1.6mm_P2.50mm" H 4350 5700 50  0001 C CNN
F 3 "~" H 4350 5700 50  0001 C CNN
	1    4350 5700
	-1   0    0    1   
$EndComp
Wire Wire Line
	4350 5600 4350 5500
Wire Wire Line
	4150 5950 4250 5950
Wire Wire Line
	4350 5950 4350 5800
$Comp
L power:GND #PWR0111
U 1 1 616B2C17
P 4250 6000
F 0 "#PWR0111" H 4250 5750 50  0001 C CNN
F 1 "GND" H 4255 5827 50  0000 C CNN
F 2 "" H 4250 6000 50  0001 C CNN
F 3 "" H 4250 6000 50  0001 C CNN
	1    4250 6000
	1    0    0    -1  
$EndComp
Connection ~ 4250 5950
Wire Wire Line
	4250 5950 4350 5950
Wire Wire Line
	4050 5400 4350 5400
Wire Wire Line
	4350 5400 4350 5500
Connection ~ 4350 5500
Wire Wire Line
	4150 5800 4150 5950
Text Label 4100 5300 0    50   ~ 0
OUT0
Text Label 2550 4900 0    50   ~ 0
OUT0
Text Label 2500 4700 0    50   ~ 0
FI2
Entry Wire Line
	2650 4700 2750 4600
Text Label 4100 5100 0    50   ~ 0
F_8MHz
Text Label 4100 5200 0    50   ~ 0
IRQ
NoConn ~ 4050 5600
$Comp
L Device:R_Small R29
U 1 1 61793332
P 2450 4500
F 0 "R29" V 2450 4500 50  0000 C CNN
F 1 "10k" H 2350 4500 50  0000 C CNN
F 2 "Resistor_THT:R_Axial_DIN0204_L3.6mm_D1.6mm_P5.08mm_Horizontal" H 2450 4500 50  0001 C CNN
F 3 "~" H 2450 4500 50  0001 C CNN
	1    2450 4500
	-1   0    0    1   
$EndComp
$Comp
L power:+5V #PWR0112
U 1 1 6179409A
P 2450 4300
F 0 "#PWR0112" H 2450 4150 50  0001 C CNN
F 1 "+5V" V 2465 4428 50  0000 L CNN
F 2 "" H 2450 4300 50  0001 C CNN
F 3 "" H 2450 4300 50  0001 C CNN
	1    2450 4300
	1    0    0    -1  
$EndComp
Wire Wire Line
	4250 6000 4250 5950
Wire Bus Line
	2250 1450 2800 1450
Connection ~ 2800 1450
Wire Bus Line
	2800 1450 4650 1450
Wire Wire Line
	5500 4750 5150 4750
Wire Wire Line
	5500 4850 5150 4850
Wire Wire Line
	5500 4950 5150 4950
Wire Wire Line
	5500 5050 5150 5050
Wire Wire Line
	5500 5150 5150 5150
Wire Wire Line
	5500 5250 5150 5250
Wire Wire Line
	5500 5350 5150 5350
Wire Wire Line
	5500 5450 5150 5450
Wire Wire Line
	5500 5550 5150 5550
Wire Wire Line
	5500 5650 5150 5650
Wire Wire Line
	5500 5750 5150 5750
Text Label 5250 5050 0    50   ~ 0
D0
Text Label 5250 5150 0    50   ~ 0
D1
Text Label 5250 5250 0    50   ~ 0
D2
Text Label 5250 5350 0    50   ~ 0
D3
Text Label 5250 5450 0    50   ~ 0
D4
Text Label 5250 5550 0    50   ~ 0
D5
Text Label 5250 5650 0    50   ~ 0
D6
Text Label 5250 5750 0    50   ~ 0
D7
Text Label 5250 4750 0    50   ~ 0
~IOWR
Text Label 5200 4850 0    50   ~ 0
~CS_SAA
Text Label 5250 4950 0    50   ~ 0
A0
Entry Wire Line
	5050 4650 5150 4750
Entry Wire Line
	5050 4750 5150 4850
Entry Wire Line
	5050 4850 5150 4950
Entry Wire Line
	5050 4950 5150 5050
Entry Wire Line
	5050 5050 5150 5150
Entry Wire Line
	5050 5150 5150 5250
Entry Wire Line
	5050 5250 5150 5350
Entry Wire Line
	5050 5350 5150 5450
Entry Wire Line
	5050 5450 5150 5550
Entry Wire Line
	5050 5550 5150 5650
Entry Wire Line
	5050 5650 5150 5750
$Comp
L Device:R_Small R33
U 1 1 61A12675
P 6600 5350
F 0 "R33" V 6600 5350 50  0000 C CNN
F 1 "10k" V 6550 5500 50  0000 C CNN
F 2 "Resistor_THT:R_Axial_DIN0204_L3.6mm_D1.6mm_P5.08mm_Horizontal" H 6600 5350 50  0001 C CNN
F 3 "~" H 6600 5350 50  0001 C CNN
	1    6600 5350
	0    1    1    0   
$EndComp
$Comp
L Device:R_Small R32
U 1 1 61A12D2E
P 6600 5250
F 0 "R32" V 6600 5250 50  0000 C CNN
F 1 "10k" V 6550 5400 50  0000 C CNN
F 2 "Resistor_THT:R_Axial_DIN0204_L3.6mm_D1.6mm_P5.08mm_Horizontal" H 6600 5250 50  0001 C CNN
F 3 "~" H 6600 5250 50  0001 C CNN
	1    6600 5250
	0    1    1    0   
$EndComp
$Comp
L power:+5V #PWR0113
U 1 1 61A13466
P 7950 5250
F 0 "#PWR0113" H 7950 5100 50  0001 C CNN
F 1 "+5V" V 7965 5378 50  0000 L CNN
F 2 "" H 7950 5250 50  0001 C CNN
F 3 "" H 7950 5250 50  0001 C CNN
	1    7950 5250
	0    1    1    0   
$EndComp
$Comp
L Device:C_Small C12
U 1 1 61A13FDD
P 7750 5350
F 0 "C12" H 7650 5300 50  0000 C CNN
F 1 "10n" H 7650 5450 50  0000 C CNN
F 2 "Capacitor_THT:C_Disc_D3.0mm_W1.6mm_P2.50mm" H 7750 5350 50  0001 C CNN
F 3 "~" H 7750 5350 50  0001 C CNN
	1    7750 5350
	-1   0    0    1   
$EndComp
$Comp
L Device:CP_Small C11
U 1 1 61A14696
P 7350 5350
F 0 "C11" H 7438 5396 50  0000 L CNN
F 1 "22u" H 7438 5305 50  0000 L CNN
F 2 "Capacitor_THT:CP_Radial_D10.0mm_P5.00mm" H 7350 5350 50  0001 C CNN
F 3 "~" H 7350 5350 50  0001 C CNN
	1    7350 5350
	1    0    0    -1  
$EndComp
$Comp
L power:GND #PWR0114
U 1 1 61A15479
P 7350 5450
F 0 "#PWR0114" H 7350 5200 50  0001 C CNN
F 1 "GND" H 7355 5277 50  0000 C CNN
F 2 "" H 7350 5450 50  0001 C CNN
F 3 "" H 7350 5450 50  0001 C CNN
	1    7350 5450
	1    0    0    -1  
$EndComp
$Comp
L power:GND #PWR0115
U 1 1 61A158FC
P 7750 5450
F 0 "#PWR0115" H 7750 5200 50  0001 C CNN
F 1 "GND" H 7755 5277 50  0000 C CNN
F 2 "" H 7750 5450 50  0001 C CNN
F 3 "" H 7750 5450 50  0001 C CNN
	1    7750 5450
	1    0    0    -1  
$EndComp
$Comp
L Device:L L1
U 1 1 61A169D8
P 7550 5250
F 0 "L1" V 7740 5250 50  0000 C CNN
F 1 "10uH" V 7649 5250 50  0000 C CNN
F 2 "Inductor_THT:L_Axial_L7.0mm_D3.3mm_P2.54mm_Vertical_Fastron_MICC" H 7550 5250 50  0001 C CNN
F 3 "~" H 7550 5250 50  0001 C CNN
	1    7550 5250
	0    -1   -1   0   
$EndComp
Wire Wire Line
	7700 5250 7750 5250
Connection ~ 7750 5250
Wire Wire Line
	7400 5250 7350 5250
Connection ~ 7350 5250
Wire Wire Line
	7950 5250 7750 5250
$Comp
L power:+5V #PWR0116
U 1 1 61A847CA
P 6850 5350
F 0 "#PWR0116" H 6850 5200 50  0001 C CNN
F 1 "+5V" V 6865 5478 50  0000 L CNN
F 2 "" H 6850 5350 50  0001 C CNN
F 3 "" H 6850 5350 50  0001 C CNN
	1    6850 5350
	0    1    1    0   
$EndComp
Wire Wire Line
	6300 5450 6600 5450
Text Label 6300 5450 0    50   ~ 0
F_8MHz
$Comp
L Device:R_Small R30
U 1 1 61A9BA9D
P 6600 5050
F 0 "R30" V 6600 5050 50  0000 C CNN
F 1 "1k" V 6550 5200 50  0000 C CNN
F 2 "Resistor_THT:R_Axial_DIN0204_L3.6mm_D1.6mm_P5.08mm_Horizontal" H 6600 5050 50  0001 C CNN
F 3 "~" H 6600 5050 50  0001 C CNN
	1    6600 5050
	0    1    1    0   
$EndComp
$Comp
L Device:R_Small R31
U 1 1 61A9C948
P 6600 5150
F 0 "R31" V 6600 5150 50  0000 C CNN
F 1 "1k" V 6550 5300 50  0000 C CNN
F 2 "Resistor_THT:R_Axial_DIN0204_L3.6mm_D1.6mm_P5.08mm_Horizontal" H 6600 5150 50  0001 C CNN
F 3 "~" H 6600 5150 50  0001 C CNN
	1    6600 5150
	0    1    1    0   
$EndComp
Wire Wire Line
	6700 5050 6850 5050
Wire Wire Line
	6850 5050 6850 5150
Wire Wire Line
	6700 5150 6850 5150
Connection ~ 6850 5150
Wire Wire Line
	6850 5150 6850 5250
Wire Wire Line
	6500 5150 6400 5150
Wire Wire Line
	6500 5050 6350 5050
Wire Wire Line
	6500 5250 6300 5250
Wire Wire Line
	6300 5350 6500 5350
Wire Wire Line
	6700 5350 6850 5350
Wire Wire Line
	6850 5250 7350 5250
Connection ~ 6850 5250
Wire Wire Line
	6700 5250 6850 5250
$Comp
L Connector:AudioJack3_Ground J4
U 1 1 61BAF1F9
P 9850 4700
F 0 "J4" H 9570 4668 50  0000 R CNN
F 1 "AudioJack3_Ground" H 9570 4577 50  0000 R CNN
F 2 "" H 9850 4700 50  0001 C CNN
F 3 "~" H 9850 4700 50  0001 C CNN
	1    9850 4700
	-1   0    0    -1  
$EndComp
$Comp
L power:GND #PWR0117
U 1 1 61C0E770
P 9850 5000
F 0 "#PWR0117" H 9850 4750 50  0001 C CNN
F 1 "GND" H 9855 4827 50  0000 C CNN
F 2 "" H 9850 5000 50  0001 C CNN
F 3 "" H 9850 5000 50  0001 C CNN
	1    9850 5000
	1    0    0    -1  
$EndComp
Wire Wire Line
	9850 5000 9500 5000
Wire Wire Line
	9500 5000 9500 4750
Wire Wire Line
	9500 4600 9650 4600
Connection ~ 9850 5000
Wire Wire Line
	9650 4700 9300 4700
$Comp
L Device:C_Small C17
U 1 1 61C3DDFF
P 9200 4400
F 0 "C17" V 9300 4400 50  0000 C CNN
F 1 "100n" V 9250 4250 50  0000 C CNN
F 2 "Capacitor_THT:C_Disc_D3.0mm_W1.6mm_P2.50mm" H 9200 4400 50  0001 C CNN
F 3 "~" H 9200 4400 50  0001 C CNN
	1    9200 4400
	0    -1   -1   0   
$EndComp
$Comp
L Device:C_Small C18
U 1 1 61C3ECEF
P 9200 5100
F 0 "C18" V 9050 5100 50  0000 C CNN
F 1 "100n" V 9150 4950 50  0000 C CNN
F 2 "Capacitor_THT:C_Disc_D3.0mm_W1.6mm_P2.50mm" H 9200 5100 50  0001 C CNN
F 3 "~" H 9200 5100 50  0001 C CNN
	1    9200 5100
	0    -1   -1   0   
$EndComp
Wire Wire Line
	9650 4800 9300 4800
$Comp
L Device:C_Small C15
U 1 1 61C6F0E7
P 9000 4550
F 0 "C15" H 9150 4550 50  0000 C CNN
F 1 "10n" H 9100 4650 50  0000 C CNN
F 2 "Capacitor_THT:C_Disc_D3.0mm_W1.6mm_P2.50mm" H 9000 4550 50  0001 C CNN
F 3 "~" H 9000 4550 50  0001 C CNN
	1    9000 4550
	-1   0    0    1   
$EndComp
$Comp
L Device:C_Small C16
U 1 1 61C701FD
P 9000 4950
F 0 "C16" H 9150 4950 50  0000 C CNN
F 1 "10n" H 8900 4850 50  0000 C CNN
F 2 "Capacitor_THT:C_Disc_D3.0mm_W1.6mm_P2.50mm" H 9000 4950 50  0001 C CNN
F 3 "~" H 9000 4950 50  0001 C CNN
	1    9000 4950
	-1   0    0    1   
$EndComp
$Comp
L Device:R_Small R34
U 1 1 61C705F7
P 8800 4400
F 0 "R34" V 8800 4400 50  0000 C CNN
F 1 "1k" V 8700 4400 50  0000 C CNN
F 2 "Resistor_THT:R_Axial_DIN0204_L3.6mm_D1.6mm_P5.08mm_Horizontal" H 8800 4400 50  0001 C CNN
F 3 "~" H 8800 4400 50  0001 C CNN
	1    8800 4400
	0    1    1    0   
$EndComp
$Comp
L Device:R_Small R35
U 1 1 61C71465
P 8800 5100
F 0 "R35" V 8800 5100 50  0000 C CNN
F 1 "1k" V 8900 5100 50  0000 C CNN
F 2 "Resistor_THT:R_Axial_DIN0204_L3.6mm_D1.6mm_P5.08mm_Horizontal" H 8800 5100 50  0001 C CNN
F 3 "~" H 8800 5100 50  0001 C CNN
	1    8800 5100
	0    1    1    0   
$EndComp
Wire Wire Line
	9300 4400 9300 4700
Wire Wire Line
	9300 4800 9300 5100
Wire Wire Line
	9000 4850 9000 4750
Wire Wire Line
	8900 4400 9000 4400
Wire Wire Line
	9000 4450 9000 4400
Connection ~ 9000 4400
Wire Wire Line
	9000 4400 9100 4400
Wire Wire Line
	9000 5050 9000 5100
Wire Wire Line
	9000 5100 9100 5100
$Comp
L Device:C_Small C13
U 1 1 61D3B24F
P 8550 4550
F 0 "C13" H 8700 4550 50  0000 C CNN
F 1 "10n" H 8650 4650 50  0000 C CNN
F 2 "Capacitor_THT:C_Disc_D3.0mm_W1.6mm_P2.50mm" H 8550 4550 50  0001 C CNN
F 3 "~" H 8550 4550 50  0001 C CNN
	1    8550 4550
	-1   0    0    1   
$EndComp
$Comp
L Device:C_Small C14
U 1 1 61D3B441
P 8550 4950
F 0 "C14" H 8700 4950 50  0000 C CNN
F 1 "10n" H 8450 4850 50  0000 C CNN
F 2 "Capacitor_THT:C_Disc_D3.0mm_W1.6mm_P2.50mm" H 8550 4950 50  0001 C CNN
F 3 "~" H 8550 4950 50  0001 C CNN
	1    8550 4950
	-1   0    0    1   
$EndComp
Wire Wire Line
	8700 4400 8550 4400
Wire Wire Line
	8550 4400 8550 4450
Wire Wire Line
	8550 4650 8550 4750
Wire Wire Line
	8550 5050 8550 5100
Wire Wire Line
	8550 5100 8700 5100
Connection ~ 9000 5100
Wire Wire Line
	9500 4750 9000 4750
Connection ~ 9500 4750
Wire Wire Line
	9500 4750 9500 4600
Connection ~ 9000 4750
Wire Wire Line
	9000 4750 9000 4650
Wire Wire Line
	9000 4750 8550 4750
Connection ~ 8550 4750
Wire Wire Line
	8550 4750 8550 4850
Wire Wire Line
	8550 4400 7750 4400
Wire Wire Line
	7750 4400 7750 4750
Wire Wire Line
	7750 4750 6350 4750
Wire Wire Line
	6350 4750 6350 5050
Connection ~ 8550 4400
Connection ~ 6350 5050
Wire Wire Line
	6350 5050 6300 5050
Wire Wire Line
	6400 5150 6400 4800
Wire Wire Line
	6400 4800 7750 4800
Wire Wire Line
	7750 4800 7750 5100
Wire Wire Line
	7750 5100 8550 5100
Connection ~ 6400 5150
Wire Wire Line
	6400 5150 6300 5150
Connection ~ 8550 5100
$Comp
L Device:C_Small C6
U 1 1 61E32629
P 1500 7250
F 0 "C6" H 1650 7200 50  0000 C CNN
F 1 "100n" H 1650 7350 50  0000 C CNN
F 2 "Capacitor_THT:C_Disc_D3.0mm_W1.6mm_P2.50mm" H 1500 7250 50  0001 C CNN
F 3 "~" H 1500 7250 50  0001 C CNN
	1    1500 7250
	-1   0    0    1   
$EndComp
Connection ~ 1500 7150
Wire Wire Line
	1500 7150 1800 7150
$Comp
L Device:C_Small C7
U 1 1 61E32631
P 1800 7250
F 0 "C7" H 1950 7200 50  0000 C CNN
F 1 "100n" H 1950 7350 50  0000 C CNN
F 2 "Capacitor_THT:C_Disc_D3.0mm_W1.6mm_P2.50mm" H 1800 7250 50  0001 C CNN
F 3 "~" H 1800 7250 50  0001 C CNN
	1    1800 7250
	-1   0    0    1   
$EndComp
$Comp
L power:GND #PWR0118
U 1 1 61E32637
P 1500 7350
F 0 "#PWR0118" H 1500 7100 50  0001 C CNN
F 1 "GND" H 1505 7177 50  0000 C CNN
F 2 "" H 1500 7350 50  0001 C CNN
F 3 "" H 1500 7350 50  0001 C CNN
	1    1500 7350
	1    0    0    -1  
$EndComp
$Comp
L power:GND #PWR0119
U 1 1 61E3263D
P 1800 7350
F 0 "#PWR0119" H 1800 7100 50  0001 C CNN
F 1 "GND" H 1805 7177 50  0000 C CNN
F 2 "" H 1800 7350 50  0001 C CNN
F 3 "" H 1800 7350 50  0001 C CNN
	1    1800 7350
	1    0    0    -1  
$EndComp
Wire Wire Line
	1800 7150 2100 7150
$Comp
L Device:C_Small C8
U 1 1 61E32644
P 2100 7250
F 0 "C8" H 2250 7200 50  0000 C CNN
F 1 "100n" H 2250 7350 50  0000 C CNN
F 2 "Capacitor_THT:C_Disc_D3.0mm_W1.6mm_P2.50mm" H 2100 7250 50  0001 C CNN
F 3 "~" H 2100 7250 50  0001 C CNN
	1    2100 7250
	-1   0    0    1   
$EndComp
$Comp
L power:GND #PWR0120
U 1 1 61E3264A
P 2100 7350
F 0 "#PWR0120" H 2100 7100 50  0001 C CNN
F 1 "GND" H 2105 7177 50  0000 C CNN
F 2 "" H 2100 7350 50  0001 C CNN
F 3 "" H 2100 7350 50  0001 C CNN
	1    2100 7350
	1    0    0    -1  
$EndComp
Connection ~ 1800 7150
Wire Wire Line
	1250 7150 1500 7150
Connection ~ 1250 7150
Wire Wire Line
	8900 5100 9000 5100
Wire Wire Line
	4150 2050 4350 2050
Wire Bus Line
	750  3950 750  1450
Wire Bus Line
	750  1450 1050 1450
Connection ~ 750  3950
Connection ~ 1050 1450
Wire Wire Line
	3600 7150 3900 7150
Connection ~ 3600 7150
Connection ~ 3900 7150
Wire Wire Line
	2100 7150 2400 7150
Connection ~ 2100 7150
Entry Wire Line
	4950 5200 5050 5100
Wire Wire Line
	2400 4800 2450 4800
Wire Wire Line
	2400 4900 2900 4900
Wire Wire Line
	4850 5100 4850 6200
Wire Wire Line
	4850 6200 6600 6200
Wire Wire Line
	6600 6200 6600 5450
Wire Wire Line
	4050 5100 4850 5100
Wire Bus Line
	750  3950 2750 3950
Wire Wire Line
	2450 4400 2450 4300
Wire Wire Line
	2450 4600 2450 4800
Wire Wire Line
	2400 4700 2650 4700
Wire Wire Line
	2900 4400 2900 4900
Wire Wire Line
	2900 4400 4700 4400
Wire Bus Line
	2750 4600 2750 3950
Connection ~ 2750 3950
Wire Bus Line
	2750 3950 5050 3950
Entry Wire Line
	4550 2550 4650 2450
Wire Wire Line
	4150 2550 4550 2550
Text Label 4200 2550 0    50   ~ 0
~CS_PX
Text Label 5000 2950 0    50   ~ 0
~CS_PX
$Comp
L Device:R_Small R36
U 1 1 60DB4333
P 1100 5450
F 0 "R36" V 1100 5450 50  0000 C CNN
F 1 "10k" V 1200 5450 50  0000 C CNN
F 2 "Resistor_THT:R_Axial_DIN0204_L3.6mm_D1.6mm_P5.08mm_Horizontal" H 1100 5450 50  0001 C CNN
F 3 "~" H 1100 5450 50  0001 C CNN
	1    1100 5450
	0    -1   -1   0   
$EndComp
$Comp
L power:+5V #PWR01
U 1 1 60DB4C4F
P 1000 5450
F 0 "#PWR01" H 1000 5300 50  0001 C CNN
F 1 "+5V" V 1050 5500 50  0000 L CNN
F 2 "" H 1000 5450 50  0001 C CNN
F 3 "" H 1000 5450 50  0001 C CNN
	1    1000 5450
	0    -1   -1   0   
$EndComp
Wire Wire Line
	1200 5500 1200 5450
Wire Wire Line
	4050 5200 4950 5200
Wire Wire Line
	4050 5300 4700 5300
Wire Wire Line
	4700 5300 4700 4400
Wire Bus Line
	4650 1450 4650 2850
Wire Bus Line
	1050 1450 1050 2550
Wire Bus Line
	2800 1450 2800 2850
Wire Bus Line
	2250 1450 2250 2550
Wire Bus Line
	4900 1450 4900 2950
Wire Bus Line
	750  3950 750  5900
Wire Bus Line
	5050 3950 5050 5650
$EndSCHEMATC
