
CUPL(WM)        5.0a  Serial# 60008009
Device          g22v10  Library DLIB-h-40-1
Created         Mon Jun 28 11:46:48 2021
Name            Pax
Partno          CA0001
Revision        01
Date            7/05/20
Designer        Z.Sestak
Company         None
Assembly        None
Location        None
*QP24 
*QF5892 
*G0 
*F0 
*L00000 11111111111111111111111111111111
*L00032 11111111110111111110111111111111
*L00064 11111111111111111111011111111111
*L00096 11111111111111111111111111111111
*L00128 11110000000000000000000000000000
*L00416 00000000000000000000000011111111
*L00448 11111111111111111111111111111111
*L00480 11111111111011111111111111111111
*L00512 11111011111111111111111011111111
*L00544 11111111111110111111111111111111
*L00576 11101111111111111111101111111111
*L00608 11111111111111101111111111110111
*L00640 11111111111111111111111111101111
*L00672 11111011111111111111111111111111
*L00704 11111110111110111111111111111111
*L00736 11111111111111111110011111111111
*L00768 11111111111111111111111111110110
*L00800 11111111111111111111111111111111
*L00832 11111111101110110111011110110111
*L00864 01110111011111110000000000000000
*L03648 00001111111111111111111111111111
*L03680 11111111111111111111111111111011
*L03712 01110111011101110111111111110000
*L04288 00000000000000000000000011111111
*L04320 11111111111111111111111111111111
*L04352 11111111111101110111011110110111
*L04384 01110111111111110000000000000000
*L04864 00000000000000000000111111111111
*L04896 11111111111111111111111111111111
*L04928 11111111111101110111011110110111
*L04960 10111111111100000000000000000000
*L05344 00000000000000000000000011111111
*L05376 11111111111111111111111111111111
*L05408 11111111111111110111011110110111
*L05440 01111011111111110000000000000000
*L05792 00000000000000000110000000000101
*L05824 01010100001101000001001100000011
*L05856 00000011000000110001000000000000
*C7245
*7629